<?xml version="1.0" encoding="utf-8"?>
<!-- Generator: Adobe Illustrator 21.0.1, SVG Export Plug-In . SVG Version: 6.00 Build 0)  -->
<svg version="1.1" id="Layer_1" xmlns="http://www.w3.org/2000/svg" xmlns:xlink="http://www.w3.org/1999/xlink" x="0px" y="0px"
	 viewBox="0 0 278 100" style="enable-background:new 0 0 278 100;" xml:space="preserve">
<style type="text/css">
	.st0{fill:#FFFFFF;}
</style>
<g>
	<g>
		<path class="st0" d="M29,95.5c10.1-0.1,18.7-3.9,25.9-10.9c3.1-3,5.9-6.3,7.6-10.3c2.1-4.9,2.8-10,1.8-15.3
			c-0.7-3.6-3.6-5.5-7.2-5.3c-5.2,0.4-9.9,1.9-13.9,5.4c-2.5,2.2-4.6,5-6.1,8c-1.5,3.2-1.9,6.8-3.6,10c-0.4,0.8-1.1,0.8-1.6-0.1
			c-0.8-1.3-0.7-2.8-0.6-4.2c0.4-5.4,2.9-9.8,6.4-13.7c5.7-6.2,12.7-9.2,21.1-9.2c5.3,0,9.3,3.4,10.1,8.7c1.3,9.8-1.1,18.5-7.9,25.8
			c-8.4,9-18.9,14.4-31.2,15.5c-10.5,0.9-19.3-3-25.1-12.1c-3.6-5.6-3.8-12-2.6-18.4c1.3-6.8,4.6-12.6,9.1-17.8
			c2.4-2.8,5-5.4,7.9-7.6c1.5-1.1,3-2.2,4.5-3.1c1.1-0.6,3.4-2.1,3-3.6c-0.2-0.7-1.4-0.8-1.9-0.8c-1.1-0.2-2.2-0.3-3.3-0.4
			c-2.2-0.3-4.4-0.5-6.6-0.9c-4.7-0.7-9.1-2.2-12.6-5.7c-0.8-0.8-1.8-1.8-1.9-3c-0.1-1.1,0.8-1.5,1.8-1.4c1.2,0.1,2.1,0.9,3,1.5
			c1.1,0.7,2.2,1.4,3.3,2c4.4,2.3,9.2,3.3,14.1,3.4c2.4,0,4.9-0.1,7.3-0.2c3.2-0.2,4.7-1.4,5.6-4.5c1-3.6,2.2-7.2,4.2-10.5
			c3-5,7.2-8.6,12.2-11.5c4.6-2.6,9.6-3.9,14.6-4.9c4.3-0.9,9,1.9,10.3,5.9c0.7,2.2,0.3,4.3-0.8,6.4c-2.9,5.3-7.2,9.1-12.3,12
			c-3.1,1.7-6.1,3.6-9.1,5.4c-0.3,0.2-0.5,0.7-0.7,1.1c2.1,1.2,4.5,1.5,6.7,2.5c2.5,1.1,3.8,3.1,3.8,5.8c0.1,2.7-1.2,4.8-3.5,6.2
			c-4.2,2.3-8.6,2.9-13.1,1.4c-3.3-1.1-6.5-2.5-9-5.1c-1.3-1.3-2.9-1.7-4.7-1.1c-8.6,3.2-16,8.1-21.4,15.7
			c-3.6,5.1-6.2,10.8-6.9,17.1c-1.2,10.3,6.6,20.3,16.9,21.5C24.7,95.2,26.8,95.3,29,95.5C39.1,95.4,26.8,95.3,29,95.5z M73.8,9.3
			c0-2.9-1.5-4.8-4.1-5.2C65.7,3.6,61.6,4.6,58,6c-3.5,1.4-6.8,3.4-9.7,5.8c-4.4,3.6-7.3,8.2-8,13.9c-0.3,2.3,0.9,3.5,3.1,2.9
			c4.6-1.1,9.2-2.3,13.1-4.9c5.3-3.5,10.4-7.3,15.5-11.1C73.3,12,73.9,10.7,73.8,9.3C73.8,6.4,73.9,10.7,73.8,9.3z M44.1,38.7
			c0.8,1.7,1.8,2.8,3.2,3.4c3.5,1.5,7,1.2,10.4-0.3c1.2-0.5,1.6-1.7,1.6-2.9c0-1.1-0.8-1.8-1.8-2c-1.8-0.3-3.7-0.7-5.5-0.6
			C49.1,36.4,46.4,37.2,44.1,38.7C44.9,40.4,46.4,37.2,44.1,38.7z"/>
	</g>
	<path class="st0" d="M117.1,23.1c-0.1-1.9-0.3-3.8-0.7-5.7c-0.7-2.9-2.8-3.8-4.8-1.9c-2.2,2-3.9,4.5-5.7,6.9
		c-1.8,2.4-3.7,4.9-5.4,7.4c-6,8.6-11.4,17.7-16.1,27.4c-2.3,4.8-4.4,9.8-7,14.5c-2.6,4.7-5.4,9.3-8.5,13.6c-0.2,0.2-0.6,0.8-0.8,1
		c-0.4,0.5-1.5,2-2.1,3c-0.3,0.4-0.5,0.8-0.6,1.3l-0.2,0.5c0,0.9,1.8,0.5,2.4,0c1.6-1.7,4.3-5.1,5.8-6.7c0,2.7,0,4.9,0,7.2
		c0,3.5,2.2,6.4,5.1,6.7c4.2,0.5,8.3-0.3,11.9-2.9c2.9-2.1,5.7-4.4,8.3-6.9c2.7-2.6,5.8-3.4,8.3-6.3c0.5-0.6,1-1.4,1.4-2.2
		c-0.1-0.7-0.2-1.4-0.3-2c-2.5,2-5,4.2-7.6,6c-0.1,0-0.1,0.1-0.2,0.1c-0.5,0.4-1,0.9-1.6,1.3c-3.9,3.3-8.8,8.6-13.5,9.8
		c-0.7,0.2-1.4,0.2-2.1,0.1c-1.7,0.3-3.4-0.1-4.8-1.6c-2.1-2-2-5.1-1.4-7.9c0-0.2,0.1-0.4,0.1-0.5c0.2-1.6,0.9-3,1.6-4.4
		c1.4-3.8,2.9-7.3,5.6-10.1c2.6-2.8,6-5.1,9.2-6.7c0.1-0.1,0.2-0.1,0.4-0.1c3.3-2.1,6.6-4.2,10-6.2c4.7-2.9,8.2-7,10.2-12.8
		C116.4,38,117.3,30.6,117.1,23.1z M115,28.1c-0.6,5.2-2.3,9.9-4.5,14.5c-1.8,3.9-4,7.6-6.7,10.7c-2.2,2.6-4.8,4.8-7.6,6.5
		c-1.5,0.9-3,1.6-4.6,2.1c-0.9,0.3-3.7,1.4-2.8-0.9c2.9-7.4,6.1-14.5,9.8-21.4c1.8-3.4,3.7-6.8,5.7-10.1c2-3.3,3.9-6.8,6.1-9.8
		c1.3-1.8,3.1-1.5,3.7,0.7c0.5,1.8,0.7,3.6,1,5.5C115.1,27.7,115,28.2,115,28.1z"/>
	<path class="st0" d="M209.8,21c-0.2-0.6-0.3-0.8-0.6-0.9c-1.8,1.6-3.4,3.5-5,5.3c-2.1,2.3-4.2,4.7-6.2,7.1
		c-6.8,8.2-13,17-18.3,26.3c-2.6,4.6-5,9.4-7.9,13.8c-2.9,4.5-6,8.7-9.5,12.7c-0.6,0.7-1.3,1.4-2,2.1l-0.9,2.2c2.3-2,5.5-2.9,7.8-5
		c0,2.6,0,4.7,0,6.9c0,3.5,2.2,6,5.6,6.4c4.9,0.6,4.8,1,9-1.5c1.5-0.9,2.9-4.1,4.2-5.2c-0.7-2.7-1-0.5-1.8-0.4
		c-2.2,3.2-0.3,3.5-3.8,4.2c-2.2,0.4-4.7,0.1-6.2-1.8c-1-1.2-1.3-2.8-1.3-4.4c-0.1-0.7-0.1-1.4,0-2.1c0-0.4,0.1-0.9,0.1-1.3
		c-0.1-0.8,0.1-1.7,0.5-2.4c0.1-0.3,0.2-0.7,0.3-1c0-0.1,0.1-0.2,0.1-0.3c0-0.1,0-0.1,0-0.2c0.3-1.1,0.7-2.1,1.3-3.1
		c0.4-0.9,0.8-1.8,1.2-2.7c0.9-2.1,1.9-4.1,3.2-5.9c0.8-1.7,1.7-3.3,2.7-4.9c0-0.1,0-0.3,0.1-0.4c1.7-3.2,3.3-6.4,5.1-9.5
		c1.2-2.1,2.5-4,3.8-6c0.6-1,1.1-2,1.7-3c0.1-0.1,0.2-0.3,0.2-0.4c0-0.1,0.1-0.2,0.1-0.2c0.7-1.3,1.5-2.5,2.3-3.7
		c2.1-3.3,4.2-6.5,6.5-9.7c2.2-3.1,4.4-6.5,7-9.3c0.1-0.1,0.2-0.2,0.4-0.3c0.1-0.2,0.2-0.4,0.3-0.6c0,0,0,0,0-0.1
		C209.9,21.6,209.9,21.3,209.8,21z"/>
	<path class="st0" d="M224.1,39.6c-2.4-0.6-4.8-0.5-7.2-0.3c-2.6,0.2-5.2,0.4-7.7,0.6c-5.6,0.4-11.2,0.9-16.8,1
		c-5.5,0.2-10.6-1.6-15.2-4.6c-0.8-0.6-1.6-1.3-2.2-2.1c-0.3-0.5-0.9-0.7-1.4-0.6c0,0,0,0,0,0c-1.3,0.2-1.8,1.7-0.8,2.6
		c2.5,2.2,5.4,3.8,8.7,4.6c3.7,0.9,7.7,1.7,11.6,1.8c4,0.1,7.8-0.7,11.8-0.7c3.8,0,7.5,0,11.3,0.4c1.7,0.2,3.5,0.5,5.2,0.9
		c1.7,0.4,3.4,1.1,5.2,0.9c2-0.2,2.4-1.3,0.9-3C226.5,40.3,225.2,39.9,224.1,39.6z"/>
	<path class="st0" d="M172.9,59.4c-0.4-4.2-2.6-6.2-6.7-6.2c-0.6,0-1.2,0-1.7,0.1c-6.8,2.5-10.9,10.7-16.1,15.3c0,0,0,0-0.1,0.1
		c-3.1,4.3-6.7,8.1-10.3,12c-2.4,2.5-4.4,5-7.2,6.7c-0.5,0.5-1.1,0.9-1.7,1.3c-0.4,0.2-0.8,0.5-1.2,0.7c-0.1,0.1-0.2,0.2-0.2,0.2
		c-0.5,0.5-1.1,0.9-1.7,1.2c-0.2,0.1-0.4,0.3-0.5,0.6c-0.6,1.2-1.7,1.8-2.2,3c0.7-0.3,1.9-0.6,2.8-1.1c3.8-2.3,7.2-5.5,10.6-8.6
		c0.7-0.6,1.8-0.2,1.9,0.7c0.2,1.9,0.3,3.8,0.5,5.6c0.2,2.1,1.4,3.5,3.4,4.3c2.5,1,5.1,1,7.5-0.2c0.8-0.4,1.6-0.8,2.4-1.3
		c0.4-0.2,0.6-0.7,0.6-1.1c0,0,0,0,0,0c-0.1-0.9-1-1.4-1.8-0.9c-0.4,0.2-0.7,0.4-1.1,0.6c-1.5,0.9-2.9,0.9-4,0.3
		c-1.9-0.7-2.6-4.2-2.7-6c-0.2-3.7,1.3-6.2,3.2-9c0-0.3,0.1-0.6,0.3-0.9c1.7-2.9,10.7-18.1,17.1-19.1c1-0.6,2.2-0.6,3.4-0.2
		c1.6,0.6,2.8,1.6,2.9,3.3c0.3,2.7-0.9,4.8-3.1,6.3c-1.8,1.2-3.7,2.3-5.5,3.3c-0.7,0.4-0.8,1.5-0.1,2c1.9,1.2,4.3,1,6.4-0.7
		C171.7,68.5,173.3,64.4,172.9,59.4z"/>
	<path class="st0" d="M142.4,55.1c-0.7-4.9-4.8-7.4-9.1-5c-1.9,1.1-3.8,2.4-5.3,4.1c-2.6,3-5.1,6-7.6,9.1
		c-4.1,5.1-8.1,10.3-12.6,15.1c-2.8,3-6,5.4-9.4,7.7c0,1,0.1,2,0.1,3c2.8-1.6,5.6-3.3,8.4-4.9c0.5,2.2,1,4.2,1.5,6.2
		c1,3.9,3.4,5.8,7.3,5.7c1.7-0.1,3.5-0.4,5.2-0.9c2.8-0.8,5.8-2.1,8.1-3.9c-0.7-0.2-1.5-0.3-1.6-1.1c-0.5,0.3-1.4,0.7-1.8,0.9
		c-1.6,0.8-2.3,1-3.7,1.5c-1.7,0.6-3.7,0.9-5.5,0.9c-2.4-0.1-5.1-2.6-5.7-5.3c-0.4-2-0.3-8.2,2.3-10.3c1.4-1.7,3.3-3.1,5.4-3.6
		c1.6-0.4,3.3-0.4,4.8,0.3c1,0.2,2,0.6,2.9,0.5c6.4-0.1,10.7-5.1,14-10.4C141.8,61.6,142.9,58.6,142.4,55.1z M139.9,56.5
		c-0.4,2.9-1.5,5.1-3,7.2c-2.5,3.7-5.7,6.5-10,7.9c-2.4,0.8-5-1.2-4.3-3.7c0.5-1.6,0.9-3.2,1.6-4.7c2-4.8,5.1-8.7,9.5-11.5
		c0.4-0.3,0.9-0.6,1.4-0.8c1.8-0.8,3.6-0.1,4.3,1.8c0.4,0.9,0.5,1.9,0.6,2.5C140,56.9,139.9,56.9,139.9,56.5z"/>
	<path class="st0" d="M149.8,95.1c0,0,17.1-9,17.5-10.4s-3.4-1.1-3.4-1.1s-11.3,7.6-13.9,8.8"/>
	<g>
		<path class="st0" d="M245.3,93.1c-0.4,1.3-0.8-3.2-0.7-4.5c-1.3,1.7-2.6,4.3-4.4,6.1c-1,1-2.1-0.9-2-3.1
			c0.4-6.5,2.9-12.5,3.5-18.9c0.1-0.8-1.4-1.7-1.9-1.5c-0.6,0.3-1.6,1.4-1.9,2.1c-0.3,0.6-0.6,1.3-0.8,2c-0.3,6.6-1,13.5-2.1,19.9
			c0.2,0.9,0.4,1.8,0.8,2.5c0.8,1.6,2.1,1.8,3.4,1.7"/>
		<path class="st0" d="M242.5,56.8c-0.1,0.7-0.3,1.4-1.2,1.5c-0.9,0.1-1.7-0.7-1.7-1.6c0-0.9,0.8-1.6,1.7-1.5
			C242.2,55.3,242.5,56,242.5,56.8C242.4,57.5,242.5,55.8,242.5,56.8z"/>
	</g>
	<g>
		<path class="st0" d="M240.7,73c-0.7-0.6,0.2-2.4-0.8-1.8c-1.6,1.1-5.2,3.3-6.5,4.7c-3,3.2-5.8,6.6-8.6,9.9c-2.6,3-5,6.2-8.3,8.5
			c-0.1,0.1-0.2,0.1-0.3,0.2c-0.2,0.2-0.4,0.3-0.6,0.5c-0.2,0.2-0.5,0.3-0.7,0.5c-0.5,0.4-1,0.7-1.7,0.6c-0.7-0.1-1.3-0.7-1.1-1.5
			c0.1-0.4,0.3-1,0.5-1.7c0-0.2,0.1-0.5,0.1-0.7c0.3-1.4,0.7-2.8,1.1-4.1c0.8-2.8,1.6-5.6,2.5-8.4c1.3-4.3,0.6-8.2-2.2-11.5
			c-2.9-3.4-6-6.6-9.1-9.8c-1.5-1.6-4.5-1-5.4,1c-2.3,5.1-4.6,10.3-6.8,15.5c-2.1,5-4.3,9.9-7.2,14.5c-1.6,2.6-3.6,4.9-5.8,6.8
			c0.7,0.2,1.4,0.4,2.2,0.6c2.1-2.4,4-4.8,5.8-7.5c1.9-2.9,3.5-6,5.2-9c3.3-6,6.5-12.1,9.6-18.2c2.8,2.6,5.7,5.1,8.4,7.8
			c1.1,1.1,2.2,2.3,2.6,3.9c0.5,1.5,0.4,3.1,0,4.6c-0.7,2.5-1.7,5-2.3,7.5c-0.7,2.6-1.2,5.2-1.6,7.9c-0.4,2.8,1.7,4.5,4.4,3.8
			c0.8-0.2,1.6-0.6,2.2-1.2c4.1-4,7.9-8.2,12-12.2c1.9-1.8,3.9-3.6,6.1-5.1c1.1-0.8,2.2-1.5,3.3-2.1c1.2-0.7,2.3-1.1,3-2.3
			C240.8,74.2,241,73.2,240.7,73z"/>
	</g>
	<path class="st0" d="M277.1,61.7c-1.1-3.8-3.3-5.3-7.1-4.6c-2.2,0.4-4.3,1.2-5.9,2.8c-2.6,2.6-4.9,5.5-7.1,8.5
		c-2.1,2.9-4.2,5.8-6.1,8.8c-3.7,5.8-4.3,8.9-8.1,14.5c0,0-0.3,0.4-0.5,0.5c0.3,0.4,0.7,0.4,0.7,0.9c0,0.3,0,0.6,0,0.9
		c0.2,0.1,0.5,0.3,0.8,0.7c1.1-1.1,1.9-1.8,2.7-2.6c1.1-1.2,3.1-0.7,3.5,0.9c0.3,1.1,0.5,2.3,0.9,3.4c0.6,1.9,1.9,3,3.8,3.4
		c2.5,0.5,4.9,0.1,6.9-1.4c0.7-0.5,1.6-1.8,2.2-2.7c0.2-0.3,0.3-0.7,0.3-1c0.1-0.6,0.4-1.1,0.3-1.7c-0.7,0.6-2.3,2.2-3,2.8
		c-1.8,1.6-5.8,1.9-7,0.2c-0.7-0.9-1.5-2.9-1.6-4.1c-0.3-3.3-0.4-7.4,0.7-10.5c2.6-7.5,8.8-14.2,14.5-19.2c1.1-1,2.2-1.6,3.7-1.4
		c1.5,0.3,2.8,1,3.2,2.6c0.7,2.4-0.1,4.6-1.8,6.2c-0.7,0.6-1.3,1.2-2,1.8c-2,1.7,0.5,4.8,2.5,3.2c0.3-0.3,0.6-0.5,0.9-0.9
		C277.5,70.3,278.4,66.2,277.1,61.7z"/>
	<path class="st0" d="M275.3,82.7c-0.7-0.1-1.5,0.1-2.1,0.5c-1.3,0.6-2.2,1.7-3.1,2.8c-0.9,1.2-1.9,2.3-2.8,3.5
		c-2,2.5-4.1,5-6.2,7.4c-0.1,0.1-0.3,0.3-0.4,0.4c0.5,0.1,1,0.2,1.5,0.3c0,0,0,0,0.1-0.1c1.7-1.6,2.8-3.5,4.4-5.1
		c1.5-1.5,3.1-3.1,4.8-4.3c0.8-0.6,1.7-1.1,2.6-1.6c0.9-0.5,2-0.8,2.6-1.6C277.2,83.8,276.8,83,275.3,82.7z"/>
</g>
</svg>
